<svg version="1.1" id="Слой_1" xmlns="http://www.w3.org/2000/svg" xmlns:xlink="http://www.w3.org/1999/xlink" x="0px" y="0px"
     viewBox="0 0 45 31.38" style="enable-background:new 0 0 45 31.38;" xml:space="preserve">
<g>
	<path d="M44.07,15.16c-3.37-3.17-5.89-5.28-8.42-7.05c-4.28-3-8.85-4.46-13.58-4.35c-1.88,0.05-3.74,0.35-5.58,0.89l2.12,2.08
		c1.17-0.25,2.34-0.4,3.52-0.43c4.18-0.1,8.23,1.2,12.06,3.89c2.18,1.53,4.37,3.34,7.18,5.93c-1.41,1.38-3.99,3.83-5.65,5.09
		c-0.45,0.34-0.91,0.67-1.36,0.97L36.2,24c0.35-0.25,0.7-0.5,1.05-0.76c2.34-1.78,6.21-5.59,6.86-6.27L45,16.04L44.07,15.16z"/>
    <path d="M30.63,18.54c0.21-0.74,0.32-1.52,0.32-2.32c0-4.79-3.9-8.69-8.69-8.69c-0.86,0-1.69,0.13-2.48,0.36l2.23,2.19
		c0.08,0,0.17-0.01,0.25-0.01c3.39,0,6.14,2.76,6.14,6.14c0,0.04,0,0.09,0,0.13L30.63,18.54z"/>
    <path d="M32.11,23.55L29.51,21l-1.86-1.83l-8.44-8.28l-1.86-1.83l-1.53-1.5l-1.98-1.95l-5.7-5.6l0,0L8.11,0L6.39,1.76l5.1,5.01
		C10.24,7.46,9,8.27,7.77,9.19c-2.41,1.83-4.7,4.02-6.83,6.11L0,16.23l0.95,0.91c1.69,1.62,4.83,4.62,7.24,6.4
		c4.62,3.41,9.43,5.14,14.3,5.14c0.12,0,0.24,0,0.37,0c2.99-0.05,5.94-0.75,8.84-2.07l4.82,4.73l1.73-1.76L34,25.41L32.11,23.55z
		 M26.04,21.05c-1.04,0.82-2.36,1.31-3.78,1.31c-3.39,0-6.14-2.76-6.14-6.14c0-1.39,0.46-2.66,1.24-3.69L26.04,21.05z M22.81,26.13
		c-4.43,0.07-8.83-1.48-13.11-4.64c-1.89-1.4-4.33-3.65-6.04-5.28c1.8-1.74,3.7-3.51,5.65-4.99c1.34-1.02,2.71-1.88,4.08-2.59
		l2.14,2.1c-1.22,1.5-1.96,3.41-1.96,5.48c0,4.79,3.9,8.69,8.69,8.69c2.14,0,4.09-0.78,5.61-2.06l1.86,1.83
		C27.45,25.6,25.13,26.09,22.81,26.13z"/>
</g>
</svg>
